\relax 
\citation{bentz2010climate}
\citation{buma2015disturbance}
\citation{kaufmann2008status}
\citation{meigs2016insect}
\citation{bentz2010climate,safranyik2007mountain}
\citation{bc2010state}
\citation{axelson2009influence,lynch2006influence,simard2011mountain,bradley2001effects,elkin2005low,kaufmann2008status,meigs2016insect,agne2016fire,seidl2016spatial}
\citation{axelson2009influence,lynch2006influence,simard2011mountain,bradley2001effects,kaufmann2008status,meigs2016insect,agne2016fire,seidl2016spatial,JENKINS200816}
\citation{lynch2006influence}
\citation{seidl2016spatial}
\citation{simard2011mountain,bradley2001effects}
\citation{simard2011mountain}
\citation{moran2012mountain}
\citation{ludwig1978qualitative}
\citation{ludwig1978qualitative}
\citation{powell1996local}
\citation{gilbert2004comparison}
\citation{gilbert2004comparison}
\citation{duncan2015model}
\citation{duncan2015model}
\citation{lewis2010structured}
\citation{lewis2010structured}
\citation{barlow2014modelling,ali2015coupled}
\@writefile{toc}{\contentsline {section}{\numberline {1}Introduction}{2}{}\protected@file@percent }
\citation{seidl2016spatial}
\citation{axelson2010changes,safranyik2003mountain}
\citation{lewis2010structured,duncan2015model}
\citation{duncan2015model}
\citation{edelstein1988mathematical}
\citation{safranyik2003mountain,alfaro2003dendroecological}
\@writefile{toc}{\contentsline {section}{\numberline {2}Methods}{4}{}\protected@file@percent }
\@writefile{toc}{\contentsline {subsection}{\numberline {2.1}Model Description}{4}{}\protected@file@percent }
\citation{safranyik2001effects,sartwell1975,amman1998silvicultural}
\citation{safranyik2001effects,sartwell1975,amman1998silvicultural}
\@writefile{lof}{\contentsline {figure}{\numberline {1}{\ignorespaces Conceptual diagram of compartments (state variables) and transitions between compartments across seasons. See main text and Table \G@refundefinedtrue \text  {\normalfont  \bfseries  ??}\GenericWarning  {               }{LaTeX Warning: Reference `params' on page 5 undefined} for definitions of variables and parameters.}}{5}{}\protected@file@percent }
\newlabel{diagram}{{1}{5}}
\newlabel{eq1}{{2a}{5}}
\newlabel{eq2}{{2b}{5}}
\newlabel{eq3}{{2c}{5}}
\newlabel{eq4}{{2d}{5}}
\newlabel{eq5}{{2e}{5}}
\newlabel{eq6}{{2f}{5}}
\@writefile{toc}{\contentsline {subsection}{\numberline {2.2}\DIFdelbegin  {\color {red} [..\FN@sf@gobble@opt  {removed: Control } ]}\DIFdelend  \DIFaddbegin  {\color {blue} \sf  Forest thinning protocol (FTP) and controlled }\DIFaddend  burning protocol (CBP)}{5}{}\protected@file@percent }
\citation{agne2016fire}
\citation{duncan2015model}
\citation{duncan2015model}
\citation{powell2009connecting}
\citation{powell2009connecting}
\citation{duncan2015model}
\citation{powell2009connecting}
\citation{duncan2015model}
\@writefile{lot}{\contentsline {table}{\numberline {1}{\ignorespaces Parameters and baseline values of compound fire and pest model. Except for $\alpha _i$ and the noise \DIFdelbeginFL  {\color {red} [..\FN@sf@gobble@opt  {removed: magnitiude} ]}\DIFdelendFL  \DIFaddbeginFL  {\color {blue} \sf  magnitude}\DIFaddendFL  , all parameters were obtained from Duncan et al. \cite  {duncan2015model}}}{6}{}\protected@file@percent }
\newlabel{params}{{1}{6}}
\newlabel{ftp_eq1}{{4}{6}}
\newlabel{ftp_eq2}{{5}{6}}
\newlabel{ftp_f_eq}{{7}{6}}
\@writefile{toc}{\contentsline {subsection}{\numberline {2.3}Parameters and simulation design}{6}{}\protected@file@percent }
\@writefile{toc}{\contentsline {section}{\numberline {3}Results}{7}{}\protected@file@percent }
\@writefile{toc}{\contentsline {subsection}{\numberline {3.1}Dynamical regimes}{7}{}\protected@file@percent }
\@writefile{lof}{\contentsline {figure}{\numberline {2}{\ignorespaces {\color {blue} \sf  Approximate dynamical regimes of the system, where $\alpha _1$ is the burning rate of juvenile trees, and $\alpha _2$ is the burning rate of susceptible (mature) trees. a) Average size of largest MPB population (over 500 years at equilibrium) b) Average frequency of MPB outbreaks at equilibrium c) Average size of largest fire season (over 500 years at equilibrium) d) Average frequency of severe fire seasons at equilibrium. The juvenile burning rate ($\alpha _1$) and susceptible burning rate ($\alpha _2$) control fire and MPB prevalence. Large $\alpha _1,\alpha _2$ implies low infestation and also more regularity in the fire regime. All other parameters were set to baseline values (Table \G@refundefinedtrue \text  {\normalfont  \bfseries  ??}\GenericWarning  {               }{LaTeX Warning: Reference `params' on page 9 undefined}).}}}{9}{}\protected@file@percent }
\newlabel{dynamical_regimes}{{2}{9}}
\@writefile{toc}{\contentsline {subsection}{\numberline {3.2}Impact of \DIFaddbegin  {\color {blue} \sf  forest thinning protocol (FTP) and controlled burning protocol (}\DIFaddend  CBP\DIFaddbegin  {\color {blue} \sf  )}\DIFaddend  }{9}{}\protected@file@percent }
\@writefile{lof}{\contentsline {figure}{\numberline {3}{\ignorespaces Time series of each state variable of a single realization where \DIFdelbeginFL  {\color {red} [..\FN@sf@gobble@opt  {removed: $\alpha _1 = 0.5$} ]}\DIFdelendFL  \DIFaddbeginFL  {\color {blue} \sf  $\alpha _1 = 0.02$}\DIFaddendFL  , \DIFdelbeginFL  {\color {red} [..\FN@sf@gobble@opt  {removed: $\alpha _2 = 1.2$ (representative of Zone 2)} ]}\DIFdelendFL  \DIFaddbeginFL  {\color {blue} \sf  $\alpha _2 = 0.0025$ }\DIFaddendFL  , showing the regular outbreaks of pests, \DIFaddbeginFL  {\color {blue} \sf  periodic shifts in }\DIFaddendFL  fire \DIFdelbeginFL  {\color {red} [..\FN@sf@gobble@opt  {removed: and consequently} ]}\DIFdelendFL  \DIFaddbeginFL  {\color {blue} \sf  prevalence}\DIFaddendFL  , \DIFaddbeginFL  {\color {blue} \sf  and uneven age distribution generated by MPB outbreaks. }\DIFaddendFL  a\DIFdelbeginFL  {\color {red} [..\FN@sf@gobble@opt  {removed: large peak in the } ]}\DIFdelendFL  \DIFaddbeginFL  {\color {blue} \sf  ) }\DIFaddendFL  juvenile distribution at \DIFdelbeginFL  {\color {red} [..\FN@sf@gobble@opt  {removed: $t = 2000$ } ]}\DIFdelendFL  \DIFaddbeginFL  {\color {blue} \sf  time $t=2050$ }\DIFaddendFL  (\DIFdelbeginFL  {\color {red} [..\FN@sf@gobble@opt  {removed: top} ]}\DIFdelendFL  \DIFaddbeginFL  {\color {blue} \sf  note different x-axis}\DIFaddendFL  )\DIFaddbeginFL  {\color {blue} \sf  , b) susceptible population after year $t$, c) infested tree population after year $t$, d) burned forest after year $t$}\DIFaddendFL  . All other parameters were set to baseline values (Table \G@refundefinedtrue \text  {\normalfont  \bfseries  ??}\GenericWarning  {               }{LaTeX Warning: Reference `params' on page 10 undefined}).}}{10}{}\protected@file@percent }
\newlabel{z1}{{3}{10}}
\citation{kaufmann2008status}
\citation{seidl2016spatial}
\citation{barrett1982indian}
\citation{boyd1999indians}
\@writefile{lof}{\contentsline {figure}{\numberline {4}{\ignorespaces \DIFdelbeginFL  {\color {red} [..\FN@sf@gobble@opt  {removed: CPB functions through flattening the juvenile age distribution (top), } ]}\DIFdelendFL  \DIFaddbeginFL  {\color {blue} \sf  Percentage change in maximum MPB infestation size within 500 year period under }\DIFaddendFL  a\DIFdelbeginFL  {\color {red} [..\FN@sf@gobble@opt  {removed: snapshot taken at $t = 2000$. a} ]}\DIFdelendFL  ) \DIFdelbeginFL  {\color {red} [..\FN@sf@gobble@opt  {removed: With $\alpha _1 = 0.6$} ]}\DIFdelendFL  \DIFaddbeginFL  {\color {blue} \sf  FTP with $\tau = 0.15, m = 8$}\DIFaddendFL  , \DIFdelbeginFL  {\color {red} [..\FN@sf@gobble@opt  {removed: $\alpha _2 = 1.2$, control applied yearly } ]}\DIFdelendFL  b) \DIFdelbeginFL  {\color {red} [..\FN@sf@gobble@opt  {removed: With $\alpha _1 = 0.6$} ]}\DIFdelendFL  \DIFaddbeginFL  {\color {blue} \sf  CBP with $\tau = 0.15, m = 8$}\DIFaddendFL  , \DIFdelbeginFL  {\color {red} [..\FN@sf@gobble@opt  {removed: $\alpha _2 = 1.2$} ]}\DIFdelendFL  \DIFaddbeginFL  {\color {blue} \sf  with respect to burning rates $\alpha _1,\alpha _2$}\DIFaddendFL  , \DIFdelbeginFL  {\color {red} [..\FN@sf@gobble@opt  {removed: control applied every five years. All other parameters were set } ]}\DIFdelendFL  \DIFaddbeginFL  {\color {blue} \sf  compared }\DIFaddendFL  to \DIFdelbeginFL  {\color {red} [..\FN@sf@gobble@opt  {removed: baseline values (Table \G@refundefinedtrue \text  {\normalfont  \bfseries  ??}\GenericWarning  {               }{LaTeX Warning: Reference `params' on page 12 undefined})} ]}\DIFdelendFL  \DIFaddbeginFL  {\color {blue} \sf  no FTP}\DIFaddendFL  . \DIFaddbeginFL  {\color {blue} \sf  FTP is always effective at reducing MPB outbreaks, and CBP worsens them if the population of MPB is already low.}\DIFaddendFL  }}{12}{}\protected@file@percent }
\newlabel{trim_gain}{{4}{12}}
\@writefile{lof}{\contentsline {figure}{\numberline {5}{\ignorespaces {\color {blue} \sf  Time series showing realization of model under FTP with $\tau = 0.15$ fraction of $m = 8$ juvenile stands cleared, conducted each year, where $\alpha _1 = 0.02$, $\alpha _2 = 0.0025$. a) juvenile distribution at time $t=2050$ (note different x-axis), b) susceptible population after year $t$, c) infested tree population after year $t$, d) burned forest after year $t$. Notice the flattening of the age distribution compared to the same parameters with no FTP (Figure \G@refundefinedtrue \text  {\normalfont  \bfseries  ??}\GenericWarning  {               }{LaTeX Warning: Reference `z1' on page 13 undefined})}}}{13}{}\protected@file@percent }
\newlabel{trim_ts}{{5}{13}}
\@writefile{toc}{\contentsline {section}{\numberline {4}Discussion}{13}{}\protected@file@percent }
\citation{jenkins2012fuels,negron2017large}
\citation{taylor2003disturbance}
\citation{axelson2009influence}
\citation{kulakowski2012stand}
\citation{axelson2009influence}
\@writefile{lof}{\contentsline {figure}{\numberline {6}{\ignorespaces {\color {blue} \sf  Percentage change in average susceptible (mature) forest population compared to no FTP with $\tau = 0.15, m = 8$, b) controlled burning with $\tau = 0.15, m = 8$, with respect to burning rates $\alpha _1,\alpha _2$. FTP and CBP increase the average population of mature trees in many cases, in addition to reducing outbreak sizes.}}}{14}{}\protected@file@percent }
\newlabel{trim_susceptible}{{6}{14}}
\citation{norris2008mountain,powell2002measuring}
\citation{leatherman2012mountain}
\citation{beal1911food}
\citation{leatherman2012mountain}
\citation{edworthy2011woodpeckers}
\citation{zwolak2009meta}
\citation{zwolak2008deer}
\citation{zwolak2009meta}
\citation{duncan2015model}
\citation{hethcote2000mathematics}
\citation{duncan2015model}
\citation{hawksworth1964diseases,field2012demographic}
\citation{lynch2006influence}
\citation{strohm2016impacts,lynch2006influence,casagrandi1999minimal}
\citation{strohm2016impacts}
\citation{westerling2006warming}
\bibstyle{spmpsci}
\bibdata{ref.bib}
\gdef \@abspage@last{20}
