\relax 
\citation{bentz2010climate}
\citation{buma2015disturbance}
\@writefile{toc}{\contentsline {section}{\numberline {1}Introduction}{1}{}\protected@file@percent }
\citation{kaufmann2008status}
\citation{meigs2016insect}
\citation{bentz2010climate,safranyik2007mountain}
\citation{bc2010state}
\citation{axelson2009influence,lynch2006influence,simard2011mountain,bradley2001effects,elkin2005low,kaufmann2008status,meigs2016insect,agne2016fire,seidl2016spatial}
\citation{simard2011mountain,bradley2001effects}
\citation{simard2011mountain}
\citation{moran2012mountain}
\citation{ludwig1978qualitative}
\citation{powell1996local}
\citation{gilbert2004comparison}
\citation{duncan2015model}
\citation{lewis2010structured}
\citation{barlow2014modelling,ali2015coupled}
\citation{seidl2016spatial}
\citation{lewis2010structured,duncan2015model}
\citation{duncan2015model}
\citation{edelstein1988mathematical}
\citation{safranyik2003mountain,alfaro2003dendroecological}
\@writefile{toc}{\contentsline {section}{\numberline {2}Methods}{3}{}\protected@file@percent }
\@writefile{toc}{\contentsline {subsection}{\numberline {2.1}Model Description}{3}{}\protected@file@percent }
\citation{safranyik2001effects,sartwell1975,amman1998silvicultural}
\@writefile{lof}{\contentsline {figure}{\numberline {1}{\ignorespaces Conceptual diagram of compartments (state variables) and transitions between compartments across seasons. See main text and Table 1\hbox {} for definitions of variables and parameters.}}{4}{}\protected@file@percent }
\newlabel{diagram}{{1}{4}}
\newlabel{eq1}{{1}{4}}
\newlabel{eq2}{{2}{4}}
\newlabel{eq3}{{3}{4}}
\newlabel{eq4}{{4}{4}}
\newlabel{eq5}{{5}{4}}
\citation{agne2016fire}
\citation{duncan2015model}
\citation{duncan2015model}
\citation{powell2009connecting}
\citation{powell2009connecting}
\citation{duncan2015model}
\citation{powell2009connecting}
\citation{duncan2015model}
\@writefile{lot}{\contentsline {table}{\numberline {1}{\ignorespaces Parameters and baseline values of compound fire and pest model. Except for $\alpha _i$ and the noise magnitiude, all parameters were obtained from Duncan et al. \cite  {duncan2015model}}}{5}{}\protected@file@percent }
\newlabel{params}{{1}{5}}
\@writefile{toc}{\contentsline {subsection}{\numberline {2.2}Control burning protocol (CBP)}{5}{}\protected@file@percent }
\@writefile{toc}{\contentsline {subsection}{\numberline {2.3}Parameters and simulation design}{5}{}\protected@file@percent }
\@writefile{toc}{\contentsline {section}{\numberline {3}Results}{6}{}\protected@file@percent }
\@writefile{toc}{\contentsline {subsection}{\numberline {3.1}Dynamical regimes}{6}{}\protected@file@percent }
\@writefile{lof}{\contentsline {figure}{\numberline {2}{\ignorespaces Approximate dynamical regimes of the system, where $\alpha _1$ is the burning rate of juvenile trees, and $\alpha _2$ is the burning rate of susceptible (mature) trees. The juvenile burning rate ($\alpha _1$) and susceptible burning rate ($\alpha _2$) control fire and MPB prevalence. Notice that high $\alpha _1,\alpha _2$ implies low infestation. All other parameters were set to baseline values (Table 1\hbox {}).}}{7}{}\protected@file@percent }
\newlabel{a1a2plane}{{2}{7}}
\@writefile{lof}{\contentsline {figure}{\numberline {3}{\ignorespaces Time series of each state variable of a single realization where $\alpha _1 = 0.5$, $\alpha _2 = 1.2$ (representative of Zone 2), showing the regular outbreaks of pests, fire and consequently, a large peak in the juvenile distribution at $t = 2000$ (top). All other parameters were set to baseline values (Table 1\hbox {}).}}{8}{}\protected@file@percent }
\newlabel{time_series}{{3}{8}}
\@writefile{toc}{\contentsline {subsection}{\numberline {3.2}Impact of CBP}{8}{}\protected@file@percent }
\@writefile{lof}{\contentsline {figure}{\numberline {4}{\ignorespaces CPB causes a reduction in mortality, and an increase in susceptible population. Control is effective at increasing the susceptible (mature) tree population in both zones, but more effective at reducing overall mortality in zone 2. Each $\alpha _1$,$\alpha _2$ has an optimal value of $\tau ,m$. When $\tau = 0$, the case with no control is recovered. (a,b): average mortality due to pests, (c,d): average susceptible populations,(e,f): and average mortality due to both pests and silvicultural control. Column 1 (a,c,e): Zone 1, $\alpha _1 = 0.5$, $\alpha _2 = 0.5$, control applied yearly. Column 2 (b,d,f): Zone 2, $\alpha _1 = 0.6$, $\alpha _2 = 1.2$, control applied every year. All other parameters were set to baseline values (Table 1\hbox {}).}}{9}{}\protected@file@percent }
\newlabel{meanmortality}{{4}{9}}
\@writefile{lof}{\contentsline {figure}{\numberline {5}{\ignorespaces Optimal control setting for CPB compared to zero control, in trees saved per year. Control is only effective in reducing mortality in Zone 2. a) The optimal value of $\tau $ for each $\alpha _1$,$\alpha _2$ pair. $\tau = 0$ implies that this control method is not effective at that point in the parameter plane. b) the optimal value of $m$ for each $\alpha _1$,$\alpha _2$ pair. c) Mean decrease in deaths from the $\tau = 0$ setting. All other parameters were set to baseline values (Table 1\hbox {}).}}{10}{}\protected@file@percent }
\newlabel{optimal_loss}{{5}{10}}
\@writefile{lof}{\contentsline {figure}{\numberline {6}{\ignorespaces CPB is effective at increasing the average number of mature (susceptible) trees in both Zone 1, and Zone 2. a) the optimal value of $\tau $ for each $\alpha _1$,$\alpha _2$ pair. $\tau = 0$ implies that this control method is not effective at that point in the parameter plane. b) the optimal value of $m$ for each $\alpha _1$,$\alpha _2$ pair. c) Quantifies how much larger the total susceptible population is under the optimal control, on average. All other parameters were set to baseline values (Table 1\hbox {}).}}{10}{}\protected@file@percent }
\newlabel{optimal_susceptible}{{6}{10}}
\citation{kaufmann2008status}
\citation{seidl2016spatial}
\citation{duncan2015model}
\citation{hethcote2000mathematics}
\citation{duncan2015model}
\citation{hawksworth1964diseases,field2012demographic}
\@writefile{toc}{\contentsline {section}{\numberline {4}Discussion}{11}{}\protected@file@percent }
\@writefile{lof}{\contentsline {figure}{\numberline {7}{\ignorespaces CPB functions through flattening the juvenile age distribution (top), a snapshot taken at $t = 2000$. a) With $\alpha _1 = 0.6$, $\alpha _2 = 1.2$, control applied yearly b) With $\alpha _1 = 0.6$, $\alpha _2 = 1.2$, control applied every five years. All other parameters were set to baseline values (Table 1\hbox {}).}}{12}{}\protected@file@percent }
\newlabel{trim_ts}{{7}{12}}
\citation{lynch2006influence}
\citation{strohm2016impacts,lynch2006influence,casagrandi1999minimal}
\citation{strohm2016impacts}
\bibstyle{spmpsci}
\bibcite{agne2016fire}{{1}{}{{}}{{}}}
\bibcite{alfaro2003dendroecological}{{2}{}{{}}{{}}}
\bibcite{ali2015coupled}{{3}{}{{}}{{}}}
\bibcite{amman1998silvicultural}{{4}{}{{}}{{}}}
\bibcite{axelson2009influence}{{5}{}{{}}{{}}}
\bibcite{barlow2014modelling}{{6}{}{{}}{{}}}
\bibcite{bentz2010climate}{{7}{}{{}}{{}}}
\bibcite{bradley2001effects}{{8}{}{{}}{{}}}
\bibcite{buma2015disturbance}{{9}{}{{}}{{}}}
\bibcite{casagrandi1999minimal}{{10}{}{{}}{{}}}
\bibcite{duncan2015model}{{11}{}{{}}{{}}}
\bibcite{edelstein1988mathematical}{{12}{}{{}}{{}}}
\bibcite{elkin2005low}{{13}{}{{}}{{}}}
\bibcite{field2012demographic}{{14}{}{{}}{{}}}
\bibcite{bc2010state}{{15}{}{{}}{{}}}
\bibcite{gilbert2004comparison}{{16}{}{{}}{{}}}
\bibcite{hawksworth1964diseases}{{17}{}{{}}{{}}}
\bibcite{hethcote2000mathematics}{{18}{}{{}}{{}}}
\bibcite{kaufmann2008status}{{19}{}{{}}{{}}}
\bibcite{lewis2010structured}{{20}{}{{}}{{}}}
\bibcite{ludwig1978qualitative}{{21}{}{{}}{{}}}
\bibcite{lynch2006influence}{{22}{}{{}}{{}}}
\bibcite{meigs2016insect}{{23}{}{{}}{{}}}
\bibcite{moran2012mountain}{{24}{}{{}}{{}}}
\bibcite{powell2009connecting}{{25}{}{{}}{{}}}
\bibcite{powell1996local}{{26}{}{{}}{{}}}
\bibcite{safranyik2001effects}{{27}{}{{}}{{}}}
\bibcite{safranyik2007mountain}{{28}{}{{}}{{}}}
\bibcite{safranyik2003mountain}{{29}{}{{}}{{}}}
\bibcite{sartwell1975}{{30}{}{{}}{{}}}
\bibcite{seidl2016spatial}{{31}{}{{}}{{}}}
\bibcite{simard2011mountain}{{32}{}{{}}{{}}}
\bibcite{strohm2016impacts}{{33}{}{{}}{{}}}
\providecommand\NAT@force@numbers{}\NAT@force@numbers
\gdef \@abspage@last{16}
