\relax 
\@writefile{toc}{\contentsline {section}{\numberline {1}Derivation of Model Equations}{1}{}\protected@file@percent }
\newlabel{juveniles}{{1}{1}}
\newlabel{juv_growth}{{3}{1}}
\newlabel{eq1}{{7a}{2}}
\newlabel{eq2}{{7b}{2}}
\newlabel{eq3}{{7c}{2}}
\newlabel{eq4}{{7d}{2}}
\newlabel{eq5}{{7e}{2}}
\newlabel{eq6}{{7f}{2}}
\@writefile{toc}{\contentsline {section}{\numberline {2}Initial conditions}{3}{}\protected@file@percent }
\newlabel{ic}{{10g}{3}}
\@writefile{toc}{\contentsline {section}{\numberline {3}Additional Figures}{3}{}\protected@file@percent }
\@writefile{lof}{\contentsline {figure}{\numberline {1}{\ignorespaces Maximum MPB infestation size within 500 year period, under FTP with respect to $\tau $ fraction of $m$ juvenile stands cleared. a) ($\alpha _1 = 0.02$, $\alpha _2 = 0.0025$), b) ($\alpha _1 = 0.01$, $\alpha _2 = 0.006$.), c)($\alpha _1 = 0.03$, $\alpha _2 = 0.0012$.)}}{4}{}\protected@file@percent }
\newlabel{beetle_pop_yearly}{{1}{4}}
\@writefile{lof}{\contentsline {figure}{\numberline {2}{\ignorespaces Maximum MPB infestation size within 500 year period, under FTP with respect to $\tau $ fraction of $m$ juvenile stands cleared, conducted every \emph  {five} years. a)($\alpha _1 = 0.02$, $\alpha _2 = 0.0025$), b)($\alpha _1 = 0.01$, $\alpha _2 = 0.006$.), c)($\alpha _1 = 0.03$, $\alpha _2 = 0.0012$.)}}{4}{}\protected@file@percent }
\@writefile{lof}{\contentsline {figure}{\numberline {3}{\ignorespaces Maximum MPB infestation size within 500 year period, under CBP with respect to $\tau $ fraction of $m$ juvenile stands cleared, conducted each year. a)($\alpha _1 = 0.02$, $\alpha _2 = 0.0025$), b) ($\alpha _1 = 0.01$, $\alpha _2 = 0.006$.), c) ($\alpha _1 = 0.03$, $\alpha _2 = 0.0012$.)}}{4}{}\protected@file@percent }
\gdef \@abspage@last{4}
