\relax 
\providecommand\hyper@newdestlabel[2]{}
\providecommand\HyperFirstAtBeginDocument{\AtBeginDocument}
\HyperFirstAtBeginDocument{\ifx\hyper@anchor\@undefined
\global\let\oldcontentsline\contentsline
\gdef\contentsline#1#2#3#4{\oldcontentsline{#1}{#2}{#3}}
\global\let\oldnewlabel\newlabel
\gdef\newlabel#1#2{\newlabelxx{#1}#2}
\gdef\newlabelxx#1#2#3#4#5#6{\oldnewlabel{#1}{{#2}{#3}}}
\AtEndDocument{\ifx\hyper@anchor\@undefined
\let\contentsline\oldcontentsline
\let\newlabel\oldnewlabel
\fi}
\fi}
\global\let\hyper@last\relax 
\gdef\HyperFirstAtBeginDocument#1{#1}
\providecommand\HyField@AuxAddToFields[1]{}
\providecommand\HyField@AuxAddToCoFields[2]{}
\citation{bentz2010climate}
\@writefile{toc}{\contentsline {section}{\numberline {1}Introduction}{1}{section.1}\protected@file@percent }
\citation{kaufmann2008status}
\citation{meigs2016insect}
\citation{bentz2010climate,safranyik2007mountain}
\citation{bc2010state}
\citation{axelson2009influence,lynch2006influence,simard2011mountain,bradley2001effects,kaufmann2008status,meigs2016insect,agne2016fire,seidl2016spatial,JENKINS200816}
\citation{lynch2006influence}
\citation{seidl2016spatial}
\citation{simard2011mountain,bradley2001effects}
\citation{simard2011mountain}
\citation{moran2012mountain}
\citation{ludwig1978qualitative}
\citation{powell1996local}
\citation{gilbert2004comparison}
\citation{duncan2015model}
\citation{lewis2010structured}
\citation{barlow2014modelling,ali2015coupled}
\citation{seidl2016spatial}
\citation{axelson2010changes,safranyik2003mountain}
\citation{lewis2010structured,duncan2015model}
\citation{duncan2015model}
\citation{edelstein1988mathematical}
\citation{safranyik2003mountain,alfaro2003dendroecological}
\@writefile{toc}{\contentsline {section}{\numberline {2}Methods}{3}{section.2}\protected@file@percent }
\@writefile{toc}{\contentsline {subsection}{\numberline {2.1}Model Description}{3}{subsection.2.1}\protected@file@percent }
\citation{safranyik2001effects,sartwell1975,amman1998silvicultural}
\newlabel{eq1}{{2a}{4}{Model Description}{equation.2.2a}{}}
\newlabel{eq2}{{2b}{4}{Model Description}{equation.2.2b}{}}
\newlabel{eq3}{{2c}{4}{Model Description}{equation.2.2c}{}}
\newlabel{eq4}{{2d}{4}{Model Description}{equation.2.2d}{}}
\newlabel{eq5}{{2e}{4}{Model Description}{equation.2.2e}{}}
\newlabel{eq6}{{2f}{4}{Model Description}{equation.2.2f}{}}
\newlabel{diagram}{{2.1}{5}{Model Description}{equation.2.2f}{}}
\@writefile{lof}{\contentsline {figure}{\numberline {1}{\ignorespaces Conceptual diagram of compartments (state variables) and transitions between compartments across seasons. See main text and Table \ref  {params} for definitions of variables and parameters.}}{5}{figure.1}\protected@file@percent }
\@writefile{toc}{\contentsline {subsection}{\numberline {2.2}Forest thinning protocol (FTP) and controlled burning protocol (CBP)}{5}{subsection.2.2}\protected@file@percent }
\newlabel{m_largest}{{3}{5}{Forest thinning protocol (FTP) and controlled burning protocol (CBP)}{equation.2.3}{}}
\citation{agne2016fire}
\citation{duncan2015model}
\citation{duncan2015model}
\citation{powell2009connecting}
\citation{powell2009connecting}
\citation{duncan2015model}
\citation{powell2009connecting}
\citation{duncan2015model}
\@writefile{lot}{\contentsline {table}{\numberline {1}{\ignorespaces Parameters and baseline values of compound fire and pest model. Except for $\alpha _i$ and the noise magnitude, all parameters were obtained from Duncan et al. \cite  {duncan2015model}}}{6}{table.1}\protected@file@percent }
\newlabel{params}{{1}{6}{Parameters and baseline values of compound fire and pest model. Except for $\alpha _i$ and the noise magnitude, all parameters were obtained from Duncan et al. \cite {duncan2015model}}{table.1}{}}
\newlabel{ftp_eq1}{{4a}{6}{Forest thinning protocol (FTP) and controlled burning protocol (CBP)}{equation.2.4a}{}}
\newlabel{ftp_eq2}{{4b}{6}{Forest thinning protocol (FTP) and controlled burning protocol (CBP)}{equation.2.4b}{}}
\newlabel{ftp_f_eq}{{4c}{6}{Forest thinning protocol (FTP) and controlled burning protocol (CBP)}{equation.2.4c}{}}
\@writefile{toc}{\contentsline {subsection}{\numberline {2.3}Parameters and simulation design}{6}{subsection.2.3}\protected@file@percent }
\@writefile{toc}{\contentsline {section}{\numberline {3}Results}{7}{section.3}\protected@file@percent }
\@writefile{toc}{\contentsline {subsection}{\numberline {3.1}Dynamical regimes}{7}{subsection.3.1}\protected@file@percent }
\@writefile{lof}{\contentsline {figure}{\numberline {2}{\ignorespaces Approximate dynamical regimes of the system, where $\alpha _1$ is the burning rate of juvenile trees, and $\alpha _2$ is the burning rate of susceptible (mature) trees. a) Average size of largest MPB population (over 500 years at equilibrium) b) Average frequency of MPB outbreaks at equilibrium c) Average size of largest fire season (over 500 years at equilibrium) d) Average frequency of severe fire seasons at equilibrium. The juvenile burning rate ($\alpha _1$) and susceptible burning rate ($\alpha _2$) control fire and MPB prevalence. Large $\alpha _1,\alpha _2$ implies low infestation and also more regularity in the fire regime. All other parameters were set to baseline values (Table \ref  {params}).}}{8}{figure.2}\protected@file@percent }
\newlabel{dynamical_regimes}{{2}{8}{Approximate dynamical regimes of the system, where $\alpha _1$ is the burning rate of juvenile trees, and $\alpha _2$ is the burning rate of susceptible (mature) trees. a) Average size of largest MPB population (over 500 years at equilibrium) b) Average frequency of MPB outbreaks at equilibrium c) Average size of largest fire season (over 500 years at equilibrium) d) Average frequency of severe fire seasons at equilibrium. The juvenile burning rate ($\alpha _1$) and susceptible burning rate ($\alpha _2$) control fire and MPB prevalence. Large $\alpha _1,\alpha _2$ implies low infestation and also more regularity in the fire regime. All other parameters were set to baseline values (Table \ref {params})}{figure.2}{}}
\@writefile{toc}{\contentsline {subsection}{\numberline {3.2}Impact of forest thinning protocol (FTP) and controlled burning protocol (CBP)}{8}{subsection.3.2}\protected@file@percent }
\@writefile{lof}{\contentsline {figure}{\numberline {3}{\ignorespaces Time series of each state variable of a single realization where $\alpha _1 = 0.02$, $\alpha _2 = 0.0025$ , showing the regular outbreaks of pests, periodic shifts in fire prevalence, and uneven age distribution generated by MPB outbreaks. a) juvenile distribution at time $t=2050$ (note different x-axis), b) susceptible population after year $t$, c) infested tree population after year $t$, d) number of burned trees after year $t$. All other parameters were set to baseline values (Table \ref  {params}).}}{9}{figure.3}\protected@file@percent }
\newlabel{z1}{{3}{9}{Time series of each state variable of a single realization where $\alpha _1 = 0.02$, $\alpha _2 = 0.0025$ , showing the regular outbreaks of pests, periodic shifts in fire prevalence, and uneven age distribution generated by MPB outbreaks. a) juvenile distribution at time $t=2050$ (note different x-axis), b) susceptible population after year $t$, c) infested tree population after year $t$, d) number of burned trees after year $t$. All other parameters were set to baseline values (Table \ref {params})}{figure.3}{}}
\citation{kaufmann2008status}
\citation{seidl2016spatial}
\citation{barrett1982indian}
\citation{boyd1999indians}
\@writefile{lof}{\contentsline {figure}{\numberline {4}{\ignorespaces Time series showing realization of model under FTP with $\tau = 0.15$ fraction of $m = 8$ juvenile stands cleared, conducted each year, where $\alpha _1 = 0.02$, $\alpha _2 = 0.0025$. a) juvenile distribution at time $t=2050$ (note different x-axis), b) susceptible population after year $t$, c) infested tree population after year $t$, d) burned forest after year $t$. Notice the flattening of the age distribution compared to the same parameters with no FTP (Figure \ref  {z1})}}{10}{figure.4}\protected@file@percent }
\newlabel{trim_ts}{{4}{10}{Time series showing realization of model under FTP with $\tau = 0.15$ fraction of $m = 8$ juvenile stands cleared, conducted each year, where $\alpha _1 = 0.02$, $\alpha _2 = 0.0025$. a) juvenile distribution at time $t=2050$ (note different x-axis), b) susceptible population after year $t$, c) infested tree population after year $t$, d) burned forest after year $t$. Notice the flattening of the age distribution compared to the same parameters with no FTP (Figure \ref {z1})}{figure.4}{}}
\@writefile{lof}{\contentsline {figure}{\numberline {5}{\ignorespaces Percentage change in average susceptible (mature) forest population compared to no FTP with a) $\tau = 0.15, m = 8$, b) with $\tau = 0.15, m = 8$ applied every 5 years, c) controlled burning with $\tau = 0.15, m = 8$, with respect to burning rates $\alpha _1,\alpha _2$. FTP and CBP increase the average population of mature trees in many cases, in addition to reducing outbreak sizes.}}{11}{figure.5}\protected@file@percent }
\newlabel{trim_susceptible}{{5}{11}{Percentage change in average susceptible (mature) forest population compared to no FTP with a) $\tau = 0.15, m = 8$, b) with $\tau = 0.15, m = 8$ applied every 5 years, c) controlled burning with $\tau = 0.15, m = 8$, with respect to burning rates $\alpha _1,\alpha _2$. FTP and CBP increase the average population of mature trees in many cases, in addition to reducing outbreak sizes}{figure.5}{}}
\@writefile{lof}{\contentsline {figure}{\numberline {6}{\ignorespaces Percentage change in maximum MPB infestation size within 500 year period under FTP with a) $\tau = 0.15, m = 8$, b) with $\tau = 0.15, m = 8$ applied every 5 years, c) controlled burning with $\tau = 0.15, m = 8$, with respect to burning rates $\alpha _1,\alpha _2$. FTP is always effective at reducing MPB outbreaks, and CBP worsens them if the population of MPB is already low.}}{11}{figure.6}\protected@file@percent }
\newlabel{trim_gain}{{6}{11}{Percentage change in maximum MPB infestation size within 500 year period under FTP with a) $\tau = 0.15, m = 8$, b) with $\tau = 0.15, m = 8$ applied every 5 years, c) controlled burning with $\tau = 0.15, m = 8$, with respect to burning rates $\alpha _1,\alpha _2$. FTP is always effective at reducing MPB outbreaks, and CBP worsens them if the population of MPB is already low}{figure.6}{}}
\@writefile{toc}{\contentsline {section}{\numberline {4}Discussion}{11}{section.4}\protected@file@percent }
\citation{jenkins2012fuels,negron2017large}
\citation{taylor2003disturbance}
\citation{axelson2009influence}
\citation{kulakowski2012stand}
\citation{axelson2009influence}
\citation{norris2008mountain,powell2002measuring}
\citation{leatherman2012mountain}
\citation{beal1911food}
\citation{leatherman2012mountain}
\citation{edworthy2011woodpeckers}
\citation{zwolak2009meta}
\citation{zwolak2008deer}
\citation{zwolak2009meta}
\citation{duncan2015model}
\citation{duncan2015model}
\citation{strohm2016impacts,lynch2006influence,casagrandi1999minimal}
\citation{strohm2016impacts}
\citation{westerling2006warming}
\bibstyle{spmpsci}
\bibcite{agne2016fire}{{1}{}{{}}{{}}}
\bibcite{alfaro2003dendroecological}{{2}{}{{}}{{}}}
\bibcite{ali2015coupled}{{3}{}{{}}{{}}}
\bibcite{amman1998silvicultural}{{4}{}{{}}{{}}}
\bibcite{axelson2009influence}{{5}{}{{}}{{}}}
\bibcite{axelson2010changes}{{6}{}{{}}{{}}}
\bibcite{barlow2014modelling}{{7}{}{{}}{{}}}
\bibcite{barrett1982indian}{{8}{}{{}}{{}}}
\bibcite{bc2010state}{{9}{}{{}}{{}}}
\bibcite{beal1911food}{{10}{}{{}}{{}}}
\bibcite{bentz2010climate}{{11}{}{{}}{{}}}
\bibcite{boyd1999indians}{{12}{}{{}}{{}}}
\bibcite{bradley2001effects}{{13}{}{{}}{{}}}
\bibcite{casagrandi1999minimal}{{14}{}{{}}{{}}}
\bibcite{duncan2015model}{{15}{}{{}}{{}}}
\bibcite{edelstein1988mathematical}{{16}{}{{}}{{}}}
\bibcite{edworthy2011woodpeckers}{{17}{}{{}}{{}}}
\bibcite{gilbert2004comparison}{{18}{}{{}}{{}}}
\bibcite{JENKINS200816}{{19}{}{{}}{{}}}
\bibcite{jenkins2012fuels}{{20}{}{{}}{{}}}
\bibcite{kaufmann2008status}{{21}{}{{}}{{}}}
\bibcite{kulakowski2012stand}{{22}{}{{}}{{}}}
\bibcite{leatherman2012mountain}{{23}{}{{}}{{}}}
\bibcite{lewis2010structured}{{24}{}{{}}{{}}}
\bibcite{ludwig1978qualitative}{{25}{}{{}}{{}}}
\bibcite{lynch2006influence}{{26}{}{{}}{{}}}
\bibcite{meigs2016insect}{{27}{}{{}}{{}}}
\bibcite{moran2012mountain}{{28}{}{{}}{{}}}
\bibcite{negron2017large}{{29}{}{{}}{{}}}
\bibcite{norris2008mountain}{{30}{}{{}}{{}}}
\bibcite{powell2002measuring}{{31}{}{{}}{{}}}
\bibcite{powell2009connecting}{{32}{}{{}}{{}}}
\bibcite{powell1996local}{{33}{}{{}}{{}}}
\bibcite{safranyik2001effects}{{34}{}{{}}{{}}}
\bibcite{safranyik2007mountain}{{35}{}{{}}{{}}}
\bibcite{safranyik2003mountain}{{36}{}{{}}{{}}}
\bibcite{sartwell1975}{{37}{}{{}}{{}}}
\bibcite{seidl2016spatial}{{38}{}{{}}{{}}}
\bibcite{simard2011mountain}{{39}{}{{}}{{}}}
\bibcite{strohm2016impacts}{{40}{}{{}}{{}}}
\bibcite{taylor2003disturbance}{{41}{}{{}}{{}}}
\bibcite{westerling2006warming}{{42}{}{{}}{{}}}
\bibcite{zwolak2009meta}{{43}{}{{}}{{}}}
\bibcite{zwolak2008deer}{{44}{}{{}}{{}}}
\providecommand\NAT@force@numbers{}\NAT@force@numbers
\gdef \@abspage@last{18}
